{
  "count": 277,
  "next": "https://spacelaunchnow.me/api/3.3.0/launch/upcoming/?format=json&limit=10&offset=10",
  "previous": null,
  "results": [
    {
      "id": "c07ed147-ee50-4cfa-8ce3-9d7b451c0adb",
      "url": "https://spacelaunchnow.me/api/ll/2.1.0/launch/c07ed147-ee50-4cfa-8ce3-9d7b451c0adb/?format=json",
      "launch_library_id": null,
      "slug": "https://spacelaunchnow.me/launch/proton-m-briz-m-olymp-k-2",
      "name": "Proton-M Briz-M | Olymp-K #2",
      "img_url": null,
      "status": {
        "id": 1,
        "name": "Go"
      },
      "net": "2023-03-12T18:13:00-05:00",
      "window_end": "2023-03-12T18:13:00-05:00",
      "window_start": "2023-03-12T18:13:00-05:00",
      "inhold": false,
      "tbdtime": false,
      "tbddate": false,
      "probability": null,
      "holdreason": "",
      "failreason": "",
      "hashtag": null,
      "rocket": {
        "id": 7742,
        "configuration": {
          "id": 22,
          "launch_library_id": 4,
          "url": "https://spacelaunchnow.me/api/ll/2.1.0/config/launcher/22/?format=json",
          "name": "Proton-M Briz-M",
          "launch_service_provider": "Khrunichev State Research and Production Space Center"
        },
        "launcher_stage": [],
        "spacecraft_stage": null
      },
      "mission": {
        "id": 6260,
        "launch_library_id": null,
        "name": "Olymp-K #2",
        "description": "Secretive payload, reportedly known as Olymp-K or Luch, is a geostationary satellite built and launched for the Russian Ministry of defence and the Russian Intelligence agency FSB.",
        "type": "Government/Top Secret",
        "orbit": "Geostationary Transfer Orbit",
        "orbit_abbrev": "GTO"
      },
      "pad": {
        "id": 7,
        "agency_id": null,
        "name": "81/24 (81P)",
        "info_url": null,
        "wiki_url": "",
        "map_url": "http://maps.google.com/maps?q=46.071+N,+62.985+E",
        "latitude": "46.071001",
        "longitude": "62.984999",
        "location": {
          "id": 15,
          "name": "Baikonur Cosmodrome, Republic of Kazakhstan",
          "country_code": "KAZ"
        }
      },
      "image_url": null,
      "infographic_url": null
    },
    {
      "id": "13b2f658-9112-48e3-a2d8-f79dababa407",
      "url": "https://spacelaunchnow.me/api/ll/2.1.0/launch/13b2f658-9112-48e3-a2d8-f79dababa407/?format=json",
      "launch_library_id": null,
      "slug": "https://spacelaunchnow.me/launch/long-march-2c-unknown-payload",
      "name": "Long March 2C | Unknown Payload",
      "img_url": null,
      "status": {
        "id": 1,
        "name": "Go"
      },
      "net": "2023-03-12T23:05:00-05:00",
      "window_end": "2023-03-12T23:17:00-05:00",
      "window_start": "2023-03-12T22:53:00-05:00",
      "inhold": false,
      "tbdtime": false,
      "tbddate": false,
      "probability": null,
      "holdreason": "",
      "failreason": "",
      "hashtag": null,
      "rocket": {
        "id": 7814,
        "configuration": {
          "id": 61,
          "launch_library_id": 75,
          "url": "https://spacelaunchnow.me/api/ll/2.1.0/config/launcher/61/?format=json",
          "name": "Long March 2",
          "launch_service_provider": "China Aerospace Science and Technology Corporation"
        },
        "launcher_stage": [],
        "spacecraft_stage": null
      },
      "mission": null,
      "pad": {
        "id": 22,
        "agency_id": null,
        "name": "Launch Area 4 (SLS-2 / 603)",
        "info_url": null,
        "wiki_url": "https://en.wikipedia.org/wiki/Jiuquan_Launch_Area_4",
        "map_url": "http://maps.google.com/maps?q=40.960556,100.298333",
        "latitude": "40.960556",
        "longitude": "100.298333",
        "location": {
          "id": 17,
          "name": "Jiuquan, People's Republic of China",
          "country_code": "CHN"
        }
      },
      "image_url": null,
      "infographic_url": null
    },
    {
      "id": "60ee4dbe-680d-40f5-8831-dadb325c7677",
      "url": "https://spacelaunchnow.me/api/ll/2.1.0/launch/60ee4dbe-680d-40f5-8831-dadb325c7677/?format=json",
      "launch_library_id": null,
      "slug": "https://spacelaunchnow.me/launch/electron-stronger-together",
      "name": "Electron | Stronger Together",
      "img_url": null,
      "status": {
        "id": 2,
        "name": "TBD"
      },
      "net": "2023-03-14T17:00:00-05:00",
      "window_end": "2023-03-14T19:00:00-05:00",
      "window_start": "2023-03-14T17:00:00-05:00",
      "inhold": false,
      "tbdtime": false,
      "tbddate": false,
      "probability": null,
      "holdreason": "",
      "failreason": "",
      "hashtag": null,
      "rocket": {
        "id": 7794,
        "configuration": {
          "id": 26,
          "launch_library_id": 148,
          "url": "https://spacelaunchnow.me/api/ll/2.1.0/config/launcher/26/?format=json",
          "name": "Electron",
          "launch_service_provider": "Rocket Lab Ltd"
        },
        "launcher_stage": [],
        "spacecraft_stage": null
      },
      "mission": {
        "id": 6312,
        "launch_library_id": null,
        "name": "Stronger Together",
        "description": "Payload consists of 2 Synthetic Aperture Radar (SAR) satellites for Capella Space.\r\n\r\nThese 100-kg class satellites will expand Capella’s existing SAR constellation, increasing imaging capacity to meet growing customer demand.",
        "type": "Earth Science",
        "orbit": "Low Earth Orbit",
        "orbit_abbrev": "LEO"
      },
      "pad": {
        "id": 79,
        "agency_id": 147,
        "name": "Rocket Lab Launch Complex 2 (Launch Area 0 C)",
        "info_url": null,
        "wiki_url": null,
        "map_url": null,
        "latitude": "37.834",
        "longitude": "-75.488",
        "location": {
          "id": 21,
          "name": "Wallops Island, Virginia, USA",
          "country_code": "USA"
        }
      },
      "image_url": null,
      "infographic_url": null
    },
    {
      "id": "9a0216fd-811b-4e20-be0a-98e6c54859e4",
      "url": "https://spacelaunchnow.me/api/ll/2.1.0/launch/9a0216fd-811b-4e20-be0a-98e6c54859e4/?format=json",
      "launch_library_id": null,
      "slug": "https://spacelaunchnow.me/launch/falcon-9-block-5-dragon-crs-2-spx-27",
      "name": "Falcon 9 Block 5 | Dragon CRS-2 SpX-27",
      "img_url": null,
      "status": {
        "id": 1,
        "name": "Go"
      },
      "net": "2023-03-14T19:30:00-05:00",
      "window_end": "2023-03-14T19:30:00-05:00",
      "window_start": "2023-03-14T19:30:00-05:00",
      "inhold": false,
      "tbdtime": false,
      "tbddate": false,
      "probability": null,
      "holdreason": "",
      "failreason": "",
      "hashtag": null,
      "rocket": {
        "id": 7459,
        "configuration": {
          "id": 164,
          "launch_library_id": 188,
          "url": "https://spacelaunchnow.me/api/ll/2.1.0/config/launcher/164/?format=json",
          "name": "Falcon 9",
          "launch_service_provider": "SpaceX"
        },
        "launcher_stage": [
          {
            "type": "Core",
            "reused": null,
            "launcher_flight_number": 7,
            "launcher": {
              "id": 112,
              "url": "https://spacelaunchnow.me/api/ll/2.1.0/launcher/112/?format=json",
              "details": "Landed at ASOG as of Sep 25, 2022",
              "flight_proven": true,
              "serial_number": "B1073",
              "status": "active",
              "previous_flights": 6,
              "image_url": "https://spacelaunchnow-prod-east.nyc3.digitaloceanspaces.com/media/launcher_core_images/112_image_20220516182658.jpeg"
            },
            "landing": {
              "attempt": true,
              "success": null,
              "description": "B1073 will attempt to land on ASDS ASOG after its seventh flight.",
              "location": {
                "name": "A Shortfall of Gravitas",
                "abbrev": "ASOG",
                "description": "The fourth ASDS barge, A Shortfall of Gravitas (ASOG) is currently used to recover Falcon 9 and Heavy boosters in the Altantic Ocean."
              },
              "type": {
                "name": "Autonomous Spaceport Drone Ship",
                "abbrev": "ASDS",
                "description": "An autonomous spaceport drone ship (ASDS) is an ocean-going vessel derived from a deck barge, outfitted with station-keeping engines and a large landing platform. Construction of such ships was commissioned by aerospace company SpaceX to allow for recovery of rocket first-stages at sea for high-velocity missions which do not carry enough fuel to return to the launch site after lofting spacecraft onto an orbital trajectory."
              }
            }
          }
        ],
        "spacecraft_stage": {
          "id": 797,
          "url": "https://spacelaunchnow.me/api/ll/2.1.0/spacecraft/flight/797/?format=json",
          "destination": "International Space Station",
          "mission_end": null,
          "spacecraft": {
            "id": 474,
            "url": "https://spacelaunchnow.me/api/ll/2.1.0/spacecraft/474/?format=json",
            "name": "Cargo Dragon C209",
            "serial_number": "C209",
            "status": {
              "id": 1,
              "name": "Active"
            },
            "description": "Second Cargo Dragon 2",
            "configuration": {
              "id": 7,
              "url": "https://spacelaunchnow.me/api/ll/2.1.0/config/spacecraft/7/?format=json",
              "name": "Cargo Dragon 2",
              "type": {
                "id": 1,
                "name": "Unknown"
              },
              "agency": {
                "id": 121,
                "url": "https://spacelaunchnow.me/api/ll/2.1.0/agencies/121/?format=json",
                "name": "SpaceX",
                "type": "Commercial"
              },
              "in_use": true,
              "image_url": "https://spacelaunchnow-prod-east.nyc3.digitaloceanspaces.com/media/orbiter_images/cargo_dragon_2_image_20220905121632.jpg"
            }
          }
        }
      },
      "mission": {
        "id": 5857,
        "launch_library_id": null,
        "name": "Dragon CRS-2 SpX-27",
        "description": "27th commercial resupply services mission to the International Space Station operated by SpaceX. The flight will be conducted under the second Commercial Resupply Services contract with NASA.\r\n\r\nCargo Dragon 2 brings supplies and payloads, including critical materials to directly support science and research investigations that occur onboard the orbiting laboratory.",
        "type": "Resupply",
        "orbit": "Low Earth Orbit",
        "orbit_abbrev": "LEO"
      },
      "pad": {
        "id": 87,
        "agency_id": null,
        "name": "Launch Complex 39A",
        "info_url": null,
        "wiki_url": "https://en.wikipedia.org/wiki/Kennedy_Space_Center_Launch_Complex_39#Launch_Pad_39A",
        "map_url": "http://maps.google.com/maps?q=28.608+N,+80.604+W",
        "latitude": "28.60822681",
        "longitude": "-80.60428186",
        "location": {
          "id": 27,
          "name": "Kennedy Space Center, FL, USA",
          "country_code": "USA"
        }
      },
      "image_url": "https://spacelaunchnow-prod-east.nyc3.digitaloceanspaces.com/media/launch_images/falcon2520925_image_20210922155253.jpeg",
      "infographic_url": null
    },
    {
      "id": "2edfd796-97ec-4769-a191-cfa444ef6356",
      "url": "https://spacelaunchnow.me/api/ll/2.1.0/launch/2edfd796-97ec-4769-a191-cfa444ef6356/?format=json",
      "launch_library_id": null,
      "slug": "https://spacelaunchnow.me/launch/long-march-11-unknown-payload",
      "name": "Long March 11 | Unknown Payload",
      "img_url": null,
      "status": {
        "id": 1,
        "name": "Go"
      },
      "net": "2023-03-15T06:46:00-05:00",
      "window_end": "2023-03-15T06:56:00-05:00",
      "window_start": "2023-03-15T06:36:00-05:00",
      "inhold": false,
      "tbdtime": false,
      "tbddate": false,
      "probability": null,
      "holdreason": "",
      "failreason": "",
      "hashtag": null,
      "rocket": {
        "id": 7816,
        "configuration": {
          "id": 47,
          "launch_library_id": 71,
          "url": "https://spacelaunchnow.me/api/ll/2.1.0/config/launcher/47/?format=json",
          "name": "Long March 11",
          "launch_service_provider": "China Aerospace Science and Technology Corporation"
        },
        "launcher_stage": [],
        "spacecraft_stage": null
      },
      "mission": null,
      "pad": {
        "id": 142,
        "agency_id": null,
        "name": "Unknown Pad",
        "info_url": null,
        "wiki_url": "https://en.wikipedia.org/wiki/Jiuquan_Satellite_Launch_Center",
        "map_url": "http://maps.google.com/maps?q=40.9605556,100.2961393",
        "latitude": "40.9605556",
        "longitude": "100.2961393",
        "location": {
          "id": 17,
          "name": "Jiuquan, People's Republic of China",
          "country_code": "CHN"
        }
      },
      "image_url": null,
      "infographic_url": null
    },
    {
      "id": "8089a091-9b40-45d4-b68d-322b49a2bcba",
      "url": "https://spacelaunchnow.me/api/ll/2.1.0/launch/8089a091-9b40-45d4-b68d-322b49a2bcba/?format=json",
      "launch_library_id": null,
      "slug": "https://spacelaunchnow.me/launch/electron-the-beat-goes-on",
      "name": "Electron | The Beat Goes On",
      "img_url": null,
      "status": {
        "id": 2,
        "name": "TBD"
      },
      "net": "2023-03-15T21:45:00-05:00",
      "window_end": "2023-03-16T09:15:00-05:00",
      "window_start": "2023-03-15T21:45:00-05:00",
      "inhold": false,
      "tbdtime": false,
      "tbddate": false,
      "probability": null,
      "holdreason": "",
      "failreason": "",
      "hashtag": null,
      "rocket": {
        "id": 7793,
        "configuration": {
          "id": 26,
          "launch_library_id": 148,
          "url": "https://spacelaunchnow.me/api/ll/2.1.0/config/launcher/26/?format=json",
          "name": "Electron",
          "launch_service_provider": "Rocket Lab Ltd"
        },
        "launcher_stage": [
          {
            "type": "Core",
            "reused": false,
            "launcher_flight_number": 1,
            "launcher": {
              "id": 122,
              "url": "https://spacelaunchnow.me/api/ll/2.1.0/launcher/122/?format=json",
              "details": "35th Electron launch vehicle flown on 'The Beat Goes On'",
              "flight_proven": false,
              "serial_number": "35",
              "status": "active",
              "previous_flights": 0,
              "image_url": "https://spacelaunchnow-prod-east.nyc3.digitaloceanspaces.com/media/launcher_core_images/none_image_20230307125526.jpeg"
            },
            "landing": {
              "attempt": true,
              "success": null,
              "description": "Rocket Lab will attempt to recover the Electron booster after a soft parachute splashdown in the Pacific Ocean.",
              "location": {
                "name": "South Pacific",
                "abbrev": "PAC",
                "description": "Pacific Ocean off the coast of Mahia Peninsula, New Zealand."
              },
              "type": {
                "name": "Parachute Landing",
                "abbrev": "PL",
                "description": "Unpowered landing using parachute(s)."
              }
            }
          }
        ],
        "spacecraft_stage": null
      },
      "mission": {
        "id": 6311,
        "launch_library_id": null,
        "name": "The Beat Goes On",
        "description": "Payload consists of 2 second generation Earth-imaging satellites for BlackSky.\r\n\r\nThey are part of a constellation of 60 Low Earth Orbit Earth imaging satellites adding capacity to the company’s real-time geospatial intelligence and monitoring capabilities.",
        "type": "Earth Science",
        "orbit": "Sun-Synchronous Orbit",
        "orbit_abbrev": "SSO"
      },
      "pad": {
        "id": 65,
        "agency_id": 147,
        "name": "Rocket Lab Launch Complex 1A",
        "info_url": null,
        "wiki_url": "https://en.wikipedia.org/wiki/Rocket_Lab_Launch_Complex_1",
        "map_url": "https://www.google.com/maps/place/-39.262833,177.864469",
        "latitude": "-39.262833",
        "longitude": "177.864469",
        "location": {
          "id": 10,
          "name": "Onenui Station, Mahia Peninsula, New Zealand",
          "country_code": "NZL"
        }
      },
      "image_url": null,
      "infographic_url": null
    },
    {
      "id": "25d652f7-7e20-42d5-967e-b8e01305746c",
      "url": "https://spacelaunchnow.me/api/ll/2.1.0/launch/25d652f7-7e20-42d5-967e-b8e01305746c/?format=json",
      "launch_library_id": 1685,
      "slug": "https://spacelaunchnow.me/launch/terran-1-good-luck-have-fun-maiden-flight",
      "name": "Terran 1 | Good Luck, Have Fun (Maiden Flight)",
      "img_url": null,
      "status": {
        "id": 2,
        "name": "TBD"
      },
      "net": "2023-03-16T12:00:00-05:00",
      "window_end": "2023-03-16T15:00:00-05:00",
      "window_start": "2023-03-16T12:00:00-05:00",
      "inhold": false,
      "tbdtime": true,
      "tbddate": true,
      "probability": null,
      "holdreason": "",
      "failreason": "",
      "hashtag": "#GLHF",
      "rocket": {
        "id": 2212,
        "configuration": {
          "id": 180,
          "launch_library_id": 217,
          "url": "https://spacelaunchnow.me/api/ll/2.1.0/config/launcher/180/?format=json",
          "name": "Terran 1",
          "launch_service_provider": "Relativity Space"
        },
        "launcher_stage": [],
        "spacecraft_stage": null
      },
      "mission": {
        "id": 969,
        "launch_library_id": 1181,
        "name": "Good Luck, Have Fun (Maiden Flight)",
        "description": "Maiden launch of the Terran 1 rocket developed by Relativity Space.",
        "type": "Test Flight",
        "orbit": "Low Earth Orbit",
        "orbit_abbrev": "LEO"
      },
      "pad": {
        "id": 92,
        "agency_id": 161,
        "name": "Launch Complex 16",
        "info_url": null,
        "wiki_url": "https://en.wikipedia.org/wiki/Cape_Canaveral_Air_Force_Station_Launch_Complex_16",
        "map_url": "http://www.google.com/maps?q=28.501626,-80.5518",
        "latitude": "28.501626",
        "longitude": "-80.5518",
        "location": {
          "id": 12,
          "name": "Cape Canaveral, FL, USA",
          "country_code": "USA"
        }
      },
      "image_url": null,
      "infographic_url": null
    },
    {
      "id": "4470fe15-bd51-408b-9d58-283891f97344",
      "url": "https://spacelaunchnow.me/api/ll/2.1.0/launch/4470fe15-bd51-408b-9d58-283891f97344/?format=json",
      "launch_library_id": null,
      "slug": "https://spacelaunchnow.me/launch/falcon-9-block-5-starlink-group-2-8",
      "name": "Falcon 9 Block 5 | Starlink Group 2-8",
      "img_url": null,
      "status": {
        "id": 2,
        "name": "TBD"
      },
      "net": "2023-03-16T13:05:00-05:00",
      "window_end": "2023-03-16T19:30:00-05:00",
      "window_start": "2023-03-16T13:05:00-05:00",
      "inhold": false,
      "tbdtime": false,
      "tbddate": false,
      "probability": null,
      "holdreason": "",
      "failreason": "",
      "hashtag": null,
      "rocket": {
        "id": 7780,
        "configuration": {
          "id": 164,
          "launch_library_id": 188,
          "url": "https://spacelaunchnow.me/api/ll/2.1.0/config/launcher/164/?format=json",
          "name": "Falcon 9",
          "launch_service_provider": "SpaceX"
        },
        "launcher_stage": [
          {
            "type": "Core",
            "reused": null,
            "launcher_flight_number": 2,
            "launcher": {
              "id": 106,
              "url": "https://spacelaunchnow.me/api/ll/2.1.0/launcher/106/?format=json",
              "details": "Booster serial number unknown.",
              "flight_proven": false,
              "serial_number": "Unknown F9",
              "status": "N/A",
              "previous_flights": 0,
              "image_url": null
            },
            "landing": {
              "attempt": true,
              "success": null,
              "description": "The Falcon 9 first stage will attempt to land on ASDS OCISLY after this flight.",
              "location": {
                "name": "Of Course I Still Love You",
                "abbrev": "OCISLY",
                "description": "The second ASDS barge, Of Course I Still Love You (OCISLY) services launches in the Pacific Ocean and was the site of the first landing of a SpaceX Falcon 9 first stage during CRS-8, the launch of a Dragon spacecraft to the International Space Station."
              },
              "type": {
                "name": "Autonomous Spaceport Drone Ship",
                "abbrev": "ASDS",
                "description": "An autonomous spaceport drone ship (ASDS) is an ocean-going vessel derived from a deck barge, outfitted with station-keeping engines and a large landing platform. Construction of such ships was commissioned by aerospace company SpaceX to allow for recovery of rocket first-stages at sea for high-velocity missions which do not carry enough fuel to return to the launch site after lofting spacecraft onto an orbital trajectory."
              }
            }
          }
        ],
        "spacecraft_stage": null
      },
      "mission": {
        "id": 6298,
        "launch_library_id": null,
        "name": "Starlink Group 2-8",
        "description": "A batch of satellites for the Starlink mega-constellation - SpaceX's project for space-based Internet communication system.",
        "type": "Communications",
        "orbit": "Low Earth Orbit",
        "orbit_abbrev": "LEO"
      },
      "pad": {
        "id": 16,
        "agency_id": null,
        "name": "Space Launch Complex 4E",
        "info_url": null,
        "wiki_url": "",
        "map_url": "http://maps.google.com/maps?q=34.632+N,+120.611+W",
        "latitude": "34.632",
        "longitude": "-120.611",
        "location": {
          "id": 11,
          "name": "Vandenberg SFB, CA, USA",
          "country_code": "USA"
        }
      },
      "image_url": "https://spacelaunchnow-prod-east.nyc3.digitaloceanspaces.com/media/launch_images/falcon2520925_image_20230209215905.png",
      "infographic_url": null
    },
    {
      "id": "bd1d5c2b-5a73-4557-9b92-c16b916c8bbd",
      "url": "https://spacelaunchnow.me/api/ll/2.1.0/launch/bd1d5c2b-5a73-4557-9b92-c16b916c8bbd/?format=json",
      "launch_library_id": 2083,
      "slug": "https://spacelaunchnow.me/launch/falcon-9-block-5-ses-18-ses-19",
      "name": "Falcon 9 Block 5 | SES-18 & SES-19",
      "img_url": null,
      "status": {
        "id": 2,
        "name": "TBD"
      },
      "net": "2023-03-17T19:35:00-05:00",
      "window_end": "2023-03-17T19:35:00-05:00",
      "window_start": "2023-03-17T19:35:00-05:00",
      "inhold": false,
      "tbdtime": true,
      "tbddate": true,
      "probability": -1,
      "holdreason": "",
      "failreason": "",
      "hashtag": null,
      "rocket": {
        "id": 2739,
        "configuration": {
          "id": 164,
          "launch_library_id": 188,
          "url": "https://spacelaunchnow.me/api/ll/2.1.0/config/launcher/164/?format=json",
          "name": "Falcon 9",
          "launch_service_provider": "SpaceX"
        },
        "launcher_stage": [
          {
            "type": "Core",
            "reused": null,
            "launcher_flight_number": 3,
            "launcher": {
              "id": 106,
              "url": "https://spacelaunchnow.me/api/ll/2.1.0/launcher/106/?format=json",
              "details": "Booster serial number unknown.",
              "flight_proven": false,
              "serial_number": "Unknown F9",
              "status": "N/A",
              "previous_flights": 0,
              "image_url": null
            },
            "landing": {
              "attempt": true,
              "success": null,
              "description": "The Falcon 9 first stage will attempt to land on an ASDS after this flight.",
              "location": {
                "name": "Unknown",
                "abbrev": "N/A",
                "description": null
              },
              "type": {
                "name": "Autonomous Spaceport Drone Ship",
                "abbrev": "ASDS",
                "description": "An autonomous spaceport drone ship (ASDS) is an ocean-going vessel derived from a deck barge, outfitted with station-keeping engines and a large landing platform. Construction of such ships was commissioned by aerospace company SpaceX to allow for recovery of rocket first-stages at sea for high-velocity missions which do not carry enough fuel to return to the launch site after lofting spacecraft onto an orbital trajectory."
              }
            }
          }
        ],
        "spacecraft_stage": null
      },
      "mission": {
        "id": 1138,
        "launch_library_id": 1331,
        "name": "SES-18 & SES-19",
        "description": "SES-18 & SES-19 are two communications satellites built by Northrop Grumman.",
        "type": "Communications",
        "orbit": "Geostationary Transfer Orbit",
        "orbit_abbrev": "GTO"
      },
      "pad": {
        "id": 80,
        "agency_id": 121,
        "name": "Space Launch Complex 40",
        "info_url": null,
        "wiki_url": "https://en.wikipedia.org/wiki/Cape_Canaveral_Air_Force_Station_Space_Launch_Complex_40",
        "map_url": "http://maps.google.com/maps?q=28.56194122,-80.57735736",
        "latitude": "28.56194122",
        "longitude": "-80.57735736",
        "location": {
          "id": 12,
          "name": "Cape Canaveral, FL, USA",
          "country_code": "USA"
        }
      },
      "image_url": null,
      "infographic_url": null
    },
    {
      "id": "6321fcb8-9d97-499c-9564-e58477f70fe5",
      "url": "https://spacelaunchnow.me/api/ll/2.1.0/launch/6321fcb8-9d97-499c-9564-e58477f70fe5/?format=json",
      "launch_library_id": null,
      "slug": "https://spacelaunchnow.me/launch/gslv-mk-iii-oneweb-18",
      "name": "GSLV Mk III | OneWeb 18",
      "img_url": null,
      "status": {
        "id": 2,
        "name": "TBD"
      },
      "net": "2023-03-25T20:00:00-05:00",
      "window_end": "2023-03-26T00:00:00-05:00",
      "window_start": "2023-03-25T20:00:00-05:00",
      "inhold": false,
      "tbdtime": false,
      "tbddate": false,
      "probability": null,
      "holdreason": "",
      "failreason": "",
      "hashtag": null,
      "rocket": {
        "id": 2675,
        "configuration": {
          "id": 172,
          "launch_library_id": 85,
          "url": "https://spacelaunchnow.me/api/ll/2.1.0/config/launcher/172/?format=json",
          "name": "GSLV Mk III",
          "launch_service_provider": "Indian Space Research Organization"
        },
        "launcher_stage": [],
        "spacecraft_stage": null
      },
      "mission": {
        "id": 6112,
        "launch_library_id": null,
        "name": "OneWeb 18",
        "description": "A batch of 36 satellites for the OneWeb satellite constellation, which is intended to provide global Internet broadband service for individual consumers. The constellation is planned to have around 648 microsatellites (of which 60 are spares), around 150 kg each, operating in Ku-band from low Earth orbit.",
        "type": "Communications",
        "orbit": "Polar Orbit",
        "orbit_abbrev": "PO"
      },
      "pad": {
        "id": 82,
        "agency_id": 31,
        "name": "Satish Dhawan Space Centre Second Launch Pad",
        "info_url": null,
        "wiki_url": "https://en.wikipedia.org/wiki/Satish_Dhawan_Space_Centre_Second_Launch_Pad",
        "map_url": "https://www.google.com/maps?q=13.7199,80.2304",
        "latitude": "13.7199",
        "longitude": "80.2304",
        "location": {
          "id": 14,
          "name": "Sriharikota, Republic of India",
          "country_code": "IND"
        }
      },
      "image_url": null,
      "infographic_url": null
    }
  ]
}
